%YAML 1.1
%TAG !u! tag:unity3d.com,2011:
--- !u!114 &11400000
MonoBehaviour:
  m_ObjectHideFlags: 0
  m_CorrespondingSourceObject: {fileID: 0}
  m_PrefabInstance: {fileID: 0}
  m_PrefabAsset: {fileID: 0}
  m_GameObject: {fileID: 0}
  m_Enabled: 1
  m_EditorHideFlags: 0
  m_Script: {fileID: 11500000, guid: 65b3817a70796254a8f7a02f4701653f, type: 3}
  m_Name: Map 14
  m_EditorClassIdentifier: 
  mapPrefab: {fileID: 7794962257526880011, guid: 6a40720067469584ca0c434990146beb,
    type: 3}
